SIM/tb_QSPI_SRAM/tb.vcd
$date
	Mon Jan  5 20:20:21 2026
$end
$version
	Icarus Verilog
$end
$timescale
	10ps
$end
$scope module tb $end
$var wire 4 ! qspi_sio [3:0] $end
$var wire 4 " qspi_sio_o [3:0] $end
$var wire 4 # qspi_sio_i [3:0] $end
$var wire 4 $ qspi_sio_e [3:0] $end
$var wire 1 % qspi_sck $end
$var wire 1 & qspi_cs_n $end
$var wire 1 ' bus_write $end
$var wire 8 ( bus_wdata [7:0] $end
$var wire 1 ) bus_req $end
$var wire 1 * bus_rdy $end
$var wire 8 + bus_rdata [7:0] $end
$var wire 16 , bus_addr [15:0] $end
$var reg 1 - clk $end
$var reg 8 . rdata [7:0] $end
$var reg 1 / rdphase $end
$var reg 1 0 res $end
$var reg 16 1 seq [15:0] $end
$var reg 32 2 tb_cycle_counter [31:0] $end
$var reg 1 3 wdphase $end
$var integer 32 4 i [31:0] $end
$scope module U_M23LC512 $end
$var wire 1 5 HOLD_N_SIO3 $end
$var wire 1 6 Hold $end
$var wire 8 7 MemoryByte00000 [7:0] $end
$var wire 8 8 MemoryByte00001 [7:0] $end
$var wire 8 9 MemoryByte00002 [7:0] $end
$var wire 8 : MemoryByte00003 [7:0] $end
$var wire 8 ; MemoryByte00004 [7:0] $end
$var wire 8 < MemoryByte00005 [7:0] $end
$var wire 8 = MemoryByte00006 [7:0] $end
$var wire 8 > MemoryByte00007 [7:0] $end
$var wire 8 ? MemoryByte00008 [7:0] $end
$var wire 8 @ MemoryByte00009 [7:0] $end
$var wire 8 A MemoryByte0000A [7:0] $end
$var wire 8 B MemoryByte0000B [7:0] $end
$var wire 8 C MemoryByte0000C [7:0] $end
$var wire 8 D MemoryByte0000D [7:0] $end
$var wire 8 E MemoryByte0000E [7:0] $end
$var wire 8 F MemoryByte0000F [7:0] $end
$var wire 8 G MemoryByte00010 [7:0] $end
$var wire 8 H MemoryByte00011 [7:0] $end
$var wire 8 I MemoryByte00012 [7:0] $end
$var wire 8 J MemoryByte00013 [7:0] $end
$var wire 8 K MemoryByte00014 [7:0] $end
$var wire 8 L MemoryByte00015 [7:0] $end
$var wire 8 M MemoryByte00016 [7:0] $end
$var wire 8 N MemoryByte00017 [7:0] $end
$var wire 8 O MemoryByte00018 [7:0] $end
$var wire 8 P MemoryByte00019 [7:0] $end
$var wire 8 Q MemoryByte0001A [7:0] $end
$var wire 8 R MemoryByte0001B [7:0] $end
$var wire 8 S MemoryByte0001C [7:0] $end
$var wire 8 T MemoryByte0001D [7:0] $end
$var wire 8 U MemoryByte0001E [7:0] $end
$var wire 8 V MemoryByte0001F [7:0] $end
$var wire 8 W MemoryByte07FF8 [7:0] $end
$var wire 8 X MemoryByte07FF9 [7:0] $end
$var wire 8 Y MemoryByte07FFA [7:0] $end
$var wire 8 Z MemoryByte07FFB [7:0] $end
$var wire 8 [ MemoryByte07FFC [7:0] $end
$var wire 8 \ MemoryByte07FFD [7:0] $end
$var wire 8 ] MemoryByte07FFE [7:0] $end
$var wire 8 ^ MemoryByte07FFF [7:0] $end
$var wire 8 _ MemoryByte08000 [7:0] $end
$var wire 8 ` MemoryByte08001 [7:0] $end
$var wire 8 a MemoryByte08002 [7:0] $end
$var wire 8 b MemoryByte08003 [7:0] $end
$var wire 8 c MemoryByte08004 [7:0] $end
$var wire 8 d MemoryByte08005 [7:0] $end
$var wire 8 e MemoryByte08006 [7:0] $end
$var wire 8 f MemoryByte08007 [7:0] $end
$var wire 8 g MemoryByte08008 [7:0] $end
$var wire 8 h MemoryByte08009 [7:0] $end
$var wire 8 i MemoryByte0800A [7:0] $end
$var wire 8 j MemoryByte0800B [7:0] $end
$var wire 8 k MemoryByte0800C [7:0] $end
$var wire 8 l MemoryByte0800D [7:0] $end
$var wire 8 m MemoryByte0800E [7:0] $end
$var wire 8 n MemoryByte0800F [7:0] $end
$var wire 8 o MemoryByte0FFF0 [7:0] $end
$var wire 8 p MemoryByte0FFF1 [7:0] $end
$var wire 8 q MemoryByte0FFF2 [7:0] $end
$var wire 8 r MemoryByte0FFF3 [7:0] $end
$var wire 8 s MemoryByte0FFF4 [7:0] $end
$var wire 8 t MemoryByte0FFF5 [7:0] $end
$var wire 8 u MemoryByte0FFF6 [7:0] $end
$var wire 8 v MemoryByte0FFF7 [7:0] $end
$var wire 8 w MemoryByte0FFF8 [7:0] $end
$var wire 8 x MemoryByte0FFF9 [7:0] $end
$var wire 8 y MemoryByte0FFFA [7:0] $end
$var wire 8 z MemoryByte0FFFB [7:0] $end
$var wire 8 { MemoryByte0FFFC [7:0] $end
$var wire 8 | MemoryByte0FFFD [7:0] $end
$var wire 8 } MemoryByte0FFFE [7:0] $end
$var wire 8 ~ MemoryByte0FFFF [7:0] $end
$var wire 1 !" OutputEnable1 $end
$var wire 1 "" OutputEnable2 $end
$var wire 1 #" OutputEnable3 $end
$var wire 1 0 RESET $end
$var wire 1 $" SDITimingCheckEnable $end
$var wire 1 %" SIO2 $end
$var wire 1 &" SI_SIO0 $end
$var wire 1 '" SO_OE $end
$var wire 1 (" SO_SIO1 $end
$var wire 1 )" SPITimingCheckEnable $end
$var wire 1 *" SQITimingCheckEnable $end
$var wire 1 +" TimingCheckEnable $end
$var wire 1 % SCK $end
$var wire 1 ," InstructionWRMR $end
$var wire 1 -" InstructionWRITE $end
$var wire 1 ." InstructionRSTIO $end
$var wire 1 /" InstructionREAD $end
$var wire 1 0" InstructionRDMR $end
$var wire 1 1" InstructionEQIO $end
$var wire 1 2" InstructionEDIO $end
$var wire 1 & CS_N $end
$var parameter 32 3" tCLD $end
$var parameter 32 4" tCSD $end
$var parameter 32 5" tCSH $end
$var parameter 32 6" tCSS $end
$var parameter 32 7" tHD $end
$var parameter 32 8" tHH $end
$var parameter 32 9" tHI $end
$var parameter 32 :" tHS $end
$var parameter 32 ;" tLO $end
$var parameter 32 <" tSU $end
$var reg 16 =" AddrRegister [15:0] $end
$var reg 32 >" ClockCounter [31:0] $end
$var reg 8 ?" DataShifterI [7:0] $end
$var reg 8 @" DataShifterO [7:0] $end
$var reg 2 A" IOMode [1:0] $end
$var reg 8 B" InstRegister [7:0] $end
$var reg 2 C" OpMode [1:0] $end
$var reg 4 D" SO_DO [3:0] $end
$var reg 1 E" SO_Enable $end
$var integer 32 F" tDIS [31:0] $end
$var integer 32 G" tHV [31:0] $end
$var integer 32 H" tHZ [31:0] $end
$var integer 32 I" tV [31:0] $end
$upscope $end
$scope module U_QSPI_SRAM $end
$var wire 16 J" BUS_ADDR [15:0] $end
$var wire 8 K" BUS_RDATA [7:0] $end
$var wire 1 ) BUS_REQ $end
$var wire 8 L" BUS_WDATA [7:0] $end
$var wire 1 ' BUS_WRITE $end
$var wire 1 - CLK $end
$var wire 1 % QSPI_SCK $end
$var wire 4 M" QSPI_SIO_I [3:0] $end
$var wire 1 0 RES $end
$var wire 1 N" addr_cont $end
$var wire 1 O" qspi_scke $end
$var wire 8 P" rdata [7:0] $end
$var wire 1 Q" req_read $end
$var wire 1 R" req_wrte $end
$var wire 1 S" addr_ovf $end
$var wire 4 T" QSPI_SIO_O [3:0] $end
$var reg 1 * BUS_RDY $end
$var reg 1 & QSPI_CS_N $end
$var reg 4 U" QSPI_SIO_E [3:0] $end
$var reg 16 V" addr [15:0] $end
$var reg 1 W" addr_inc $end
$var reg 1 X" bus_ready_clr $end
$var reg 1 Y" bus_ready_set $end
$var reg 1 Z" qspi_csn_assert $end
$var reg 1 [" qspi_csn_negate $end
$var reg 8 \" qspi_rxd [7:0] $end
$var reg 1 ]" qspi_rxd_capture $end
$var reg 1 ^" qspi_rxd_set_hi $end
$var reg 1 _" qspi_rxd_set_lo $end
$var reg 4 `" qspi_rxd_temp [3:0] $end
$var reg 1 a" qspi_sckenb $end
$var reg 1 b" qspi_sckenb2 $end
$var reg 1 c" qspi_sckenb_clr $end
$var reg 1 d" qspi_sckenb_set $end
$var reg 4 e" qspi_sio_e_clr [3:0] $end
$var reg 4 f" qspi_sio_e_set [3:0] $end
$var reg 8 g" qspi_txd [7:0] $end
$var reg 1 h" qspi_txd_set_addrh $end
$var reg 1 i" qspi_txd_set_addrl $end
$var reg 1 j" qspi_txd_set_eqio $end
$var reg 1 k" qspi_txd_set_rdcmd $end
$var reg 1 l" qspi_txd_set_wdata_qspi $end
$var reg 1 m" qspi_txd_set_wdata_qspi_fwd $end
$var reg 1 n" qspi_txd_set_wdata_spi $end
$var reg 1 o" qspi_txd_set_wrcmd $end
$var reg 1 p" qspi_txd_sft_1bit $end
$var reg 1 q" qspi_txd_sft_4bit $end
$var reg 4 r" seq [3:0] $end
$var reg 1 s" seq_clr $end
$var reg 1 t" seq_dec $end
$var reg 1 u" seq_dec2 $end
$var reg 1 v" seq_inc $end
$var reg 3 w" state [2:0] $end
$var reg 3 x" state_next [2:0] $end
$var reg 1 y" state_update $end
$var reg 8 z" wdata [7:0] $end
$upscope $end
$scope task CONFIG_BUS_SEQUENCE $end
$var reg 16 {" ADDR [15:0] $end
$var reg 1 |" HCLR $end
$var reg 1 }" TRANS $end
$var reg 8 ~" WDATA [7:0] $end
$var reg 1 !# WRITE $end
$upscope $end
$scope task INIT_BUS_SEQUENCE $end
$upscope $end
$upscope $end
$enddefinitions $end
$comment Show the parameter values. $end
$dumpall
b1010 <"
b11001 ;"
b1010 :"
b11001 9"
b1010 8"
b1010 7"
b11001 6"
b110010 5"
b11001 4"
b11001 3"
$end
#0
$dumpvars
0!#
bx ~"
1}"
0|"
b1000000000000110 {"
b0 z"
1y"
b11 x"
b0 w"
0v"
0u"
0t"
1s"
b0 r"
0q"
0p"
0o"
0n"
0m"
0l"
0k"
0j"
0i"
0h"
b0 g"
b0 f"
b0 e"
0d"
0c"
0b"
0a"
b0 `"
0_"
0^"
0]"
b0 \"
0["
0Z"
0Y"
0X"
0W"
b0 V"
b0 U"
b0 T"
0S"
0R"
0Q"
b0 P"
0O"
0N"
b11x1 M"
b0 L"
b0 K"
b0 J"
b11001 I"
b1010 H"
b110010 G"
b10100 F"
xE"
bx D"
b1 C"
bx B"
b0 A"
bx @"
bx ?"
bx >"
bx ="
x2"
x1"
x0"
x/"
x."
x-"
x,"
0+"
0*"
0)"
x("
x'"
1&"
1%"
0$"
x#"
x""
x!"
bx ~
bx }
bx |
bx {
bx z
bx y
bx x
bx w
bx v
bx u
bx t
bx s
bx r
bx q
bx p
bx o
bx n
bx m
bx l
bx k
bx j
bx i
bx h
bx g
bx f
bx e
bx d
bx c
bx b
bx a
bx `
bx _
bx ^
bx ]
bx \
bx [
bx Z
bx Y
bx X
bx W
bx V
bx U
bx T
bx S
bx R
bx Q
bx P
bx O
bx N
bx M
bx L
bx K
bx J
bx I
bx H
bx G
bx F
bx E
bx D
bx C
bx B
bx A
bx @
bx ?
bx >
bx =
bx <
bx ;
bx :
bx 9
bx 8
bx 7
06
15
b10000000000000000 4
x3
bx 2
b101011 1
10
x/
bx .
0-
b0 ,
b0 +
0*
0)
b0 (
0'
1&
0%
b0 $
b11x1 #
b0 "
b11x1 !
$end
#2000
b1111 #
b1111 M"
1("
b1111 !
0'"
0""
#5000
x'
bx ,
bx J"
bx (
bx L"
b0 2
b0 1
0/
03
b0 .
1#"
1-
#10000
0-
#15000
1-
#20000
0-
#25000
1-
#30000
0-
#35000
1-
#40000
0-
#45000
1-
#50000
0-
#55000
1-
#60000
0-
#65000
1-
#70000
0-
#75000
1-
#80000
0-
#85000
1-
#90000
0-
#95000
1-
#100000
0-
00
#105000
1v"
b1 f"
1j"
1d"
1Z"
0s"
0y"
b0 x"
b1 2
b11 w"
1-
#110000
0-
#115000
b0 >"
0!"
0E"
b1110 #
b1110 M"
0&"
b1110 !
1)"
1+"
1p"
b0 f"
0j"
0d"
0Z"
1v"
0&
1a"
b111 g"
b1 $
b1 U"
b1 r"
b10 2
1-
#117000
1""
#120000
bx0 ?"
b1 >"
1%
1O"
1b"
0-
#125000
1p"
1v"
b11 2
b10 r"
b1110 g"
0%
1-
#130000
b10 >"
bx00 ?"
1%
0-
#135000
b1111 #
b1111 M"
1&"
b1111 !
b1 "
b1 T"
1p"
1v"
b11100 g"
b11 r"
b100 2
0%
1-
#140000
bx001 ?"
b11 >"
1%
0-
#145000
1p"
1v"
b11 "
b11 T"
b101 2
b100 r"
b111000 g"
0%
1-
#150000
b100 >"
bx0011 ?"
1%
0-
#155000
b111 "
b111 T"
1p"
1v"
b1110000 g"
b101 r"
b110 2
0%
1-
#160000
bx00111 ?"
b101 >"
1%
0-
#165000
b1110 #
b1110 M"
0&"
b1110 !
1p"
1v"
b1110 "
b1110 T"
b111 2
b110 r"
b11100000 g"
0%
1-
#170000
b110 >"
bx001110 ?"
1%
0-
#175000
b1100 "
b1100 T"
1Y"
1p"
1v"
b11000001 g"
b111 r"
b1000 2
0%
1-
#180000
bx0011100 ?"
b111 >"
1%
0-
#185000
1y"
b10 x"
1s"
b1 e"
1c"
1["
0p"
0Y"
0v"
b1000 "
b1000 T"
b1001 2
b1000 r"
b10000011 g"
1*
0%
1-
#190000
1*"
0)"
b10 A"
0/"
00"
0,"
0-"
02"
11"
0."
b111000 B"
b1000 >"
b111000 ?"
1%
0-
#195000
b1111 #
b1111 M"
0*"
1&"
b1111 !
0+"
0O"
b0 e"
0c"
0["
1s"
1y"
b10 x"
1&
0a"
b0 $
b0 U"
b10 w"
b0 r"
b1 1
b1010 2
0%
1-
#197000
0""
#200000
0b"
0-
#205000
b1011 2
b10 1
1-
#210000
0-
#215000
b11 1
b1100 2
1-
#220000
0-
#225000
1X"
1s"
1y"
b101 x"
1R"
1N"
1)
1'
b0 ,
b0 J"
b0 (
b0 L"
b1101 2
b100 1
1-
#230000
0-
#235000
0N"
0R"
1v"
b1111 f"
1o"
1d"
1Z"
0X"
0s"
0y"
b0 x"
b1 ,
b1 J"
b10001 (
b10001 L"
0*
b101 w"
13
b101 1
b1110 2
1-
#240000
0-
#245000
b0 >"
b0 #
b0 M"
0&"
0("
0%"
05
b0 !
1*"
1q"
b0 f"
0o"
0d"
0Z"
1v"
b0 "
b0 T"
1+"
b1111 2
b1 r"
b1111 $
b1111 U"
b10 g"
1a"
0&
1-
#247000
1""
#250000
b10000000 ?"
b1 >"
1%
1O"
1b"
0-
#255000
b10 #
b10 M"
1("
b10 !
b10 "
b10 T"
1h"
0q"
1v"
b100000 g"
b10 r"
b10000 2
0%
1-
#260000
1-"
01"
b10 B"
b10 >"
b10 ?"
1%
0-
#265000
b0 #
b0 M"
0("
b0 !
1q"
0h"
1v"
b0 "
b0 T"
b10001 2
b11 r"
b0 g"
0%
1-
#270000
b100000 ?"
b11 >"
1%
0-
#275000
1i"
0q"
1v"
b100 r"
b10010 2
0%
1-
#280000
b0xxxxxxxx ="
b100 >"
b0 ?"
1%
0-
#285000
1q"
0i"
1v"
b10011 2
b101 r"
0%
1-
#290000
b101 >"
1%
0-
#295000
1l"
0q"
1v"
b110 r"
b10100 2
0%
1-
#300000
b0 ="
b110 >"
1%
0-
#305000
1W"
1Y"
1q"
0l"
1v"
b10101 2
b111 r"
0%
1-
#310000
b111 >"
1%
0-
#315000
1t"
b1111 f"
1d"
1m"
1N"
0y"
1X"
b0 x"
0s"
0["
1R"
b0 e"
0c"
0q"
0W"
0Y"
0v"
b1 V"
1*
b1000 r"
b10110 2
0%
1-
#320000
b1 ="
b0 7
b1000 >"
1%
0-
#325000
b1 #
b1 M"
1&"
b1 !
b10 ,
b10 J"
b100010 (
b100010 L"
1v"
1W"
1Y"
1q"
b0 f"
0m"
0d"
0X"
0t"
b1 "
b1 T"
0N"
0R"
b10111 2
b110 1
b111 r"
b10001 g"
0*
b10001 z"
0%
1-
#330000
b1 ?"
b1001 >"
1%
0-
#335000
1t"
b1111 f"
1d"
1m"
1N"
0y"
1X"
b0 x"
0s"
0["
1R"
b0 e"
0c"
0q"
0W"
0Y"
0v"
b10 V"
1*
b1000 r"
b11000 2
0%
1-
#340000
b10 ="
b10001 8
b1010 >"
b10001 ?"
1%
0-
#345000
b10 #
b10 M"
0&"
1("
b10 !
b100 ,
b100 J"
b1000100 (
b1000100 L"
1v"
1W"
1Y"
1q"
b0 f"
0m"
0d"
0X"
0t"
b10 "
b10 T"
0N"
0R"
b11001 2
b111 1
b111 r"
b100010 g"
0*
b100010 z"
0%
1-
#350000
b10010 ?"
b1011 >"
1%
0-
#355000
1y"
1X"
b101 x"
1s"
1["
1R"
b1111 e"
1c"
0q"
0W"
0Y"
0v"
b11 V"
1*
b1000 r"
b11010 2
0%
1-
#360000
b11 ="
b100010 9
b1100 >"
b100010 ?"
1%
0-
#365000
b1111 #
b1111 M"
1&"
1("
1%"
15
b1111 !
0*"
b101 ,
b101 J"
b1010101 (
b1010101 L"
1v"
b1111 f"
1o"
1d"
1Z"
b0 e"
0c"
0["
0X"
0s"
0y"
b0 x"
0O"
0+"
0R"
b11011 2
b1000 1
b0 r"
b0 $
b0 U"
0a"
1&
0*
b1000100 z"
b100 V"
0%
1-
#367000
0""
#370000
0b"
0-
#375000
b0 >"
b0 #
b0 M"
1*"
0&"
0("
0%"
05
b0 !
1+"
b0 "
b0 T"
1q"
b0 f"
0o"
0d"
0Z"
1v"
0&
1a"
b10 g"
b1111 $
b1111 U"
b1 r"
b11100 2
1-
#377000
1""
#380000
b100000 ?"
b1 >"
1%
1O"
1b"
0-
#385000
b10 #
b10 M"
1("
b10 !
1h"
0q"
1v"
b10 "
b10 T"
b11101 2
b10 r"
b100000 g"
0%
1-
#390000
b10 >"
b10 ?"
1%
0-
#395000
b0 #
b0 M"
0("
b0 !
b0 "
b0 T"
1q"
0h"
1v"
b0 g"
b11 r"
b11110 2
0%
1-
#400000
b100000 ?"
b11 >"
1%
0-
#405000
1i"
0q"
1v"
b11111 2
b100 r"
0%
1-
#410000
b100 >"
b0 ?"
1%
0-
#415000
1q"
0i"
1v"
b100 g"
b101 r"
b100000 2
0%
1-
#420000
b101 >"
1%
0-
#425000
b100 #
b100 M"
1%"
b100 !
1l"
0q"
1v"
b100 "
b100 T"
b100001 2
b110 r"
b1000000 g"
0%
1-
#430000
b100 ="
b110 >"
b100 ?"
1%
0-
#435000
1W"
1Y"
1q"
0l"
1v"
b1000100 g"
b111 r"
b100010 2
0%
1-
#440000
b1000100 ?"
b111 >"
1%
0-
#445000
1t"
b1111 f"
1d"
1m"
1X"
0q"
0W"
0Y"
0v"
1N"
1R"
b100011 2
b1000 r"
1*
b101 V"
0%
1-
#450000
b101 ="
b1000100 ;
b1000 >"
1%
0-
#455000
b101 #
b101 M"
1&"
b101 !
0N"
0R"
b101 "
b101 T"
1v"
1W"
1Y"
1q"
b0 f"
0m"
0d"
0X"
0t"
0)
x'
bx ,
bx J"
bx (
bx L"
b1010101 z"
0*
b1010101 g"
b111 r"
b1001 1
b100100 2
0%
1-
#460000
b1000101 ?"
b1001 >"
1%
0-
#465000
b1111 e"
1c"
0q"
0W"
0Y"
0v"
b100101 2
b1000 r"
1*
b110 V"
0%
1-
#470000
b110 ="
b1010101 <
b1010 >"
b1010101 ?"
1%
0-
#475000
b1111 #
b1111 M"
1&"
1("
1%"
15
b1111 !
0O"
0a"
b0 $
b0 U"
03
b1010 1
b100110 2
0%
1-
#480000
0b"
0-
#485000
b100111 2
b1011 1
1-
#490000
0-
#495000
b1100 1
b101000 2
1-
#500000
0-
#505000
1t"
b1111 f"
1d"
1m"
1X"
b0 e"
0c"
1R"
1N"
1)
1'
b110 ,
b110 J"
b1100110 (
b1100110 L"
b101001 2
b1101 1
1-
#510000
0-
#515000
b110 #
b110 M"
0&"
1("
1%"
05
b110 !
0N"
0R"
b110 "
b110 T"
1v"
1W"
1Y"
1q"
b0 f"
0m"
0d"
0X"
0t"
b111 ,
b111 J"
b1110111 (
b1110111 L"
b1100110 z"
0*
1a"
b1100110 g"
b1111 $
b1111 U"
b111 r"
13
b1110 1
b101010 2
1-
#520000
b1010110 ?"
b1011 >"
1%
1O"
1b"
0-
#525000
1t"
b1111 f"
1d"
1m"
1X"
0q"
0W"
0Y"
0v"
1N"
1R"
b101011 2
b1000 r"
1*
b111 V"
0%
1-
#530000
b111 ="
b1100110 =
b1100 >"
b1100110 ?"
1%
0-
#535000
b111 #
b111 M"
1&"
b111 !
0N"
0R"
b111 "
b111 T"
1v"
1W"
1Y"
1q"
b0 f"
0m"
0d"
0X"
0t"
0)
x'
bx ,
bx J"
bx (
bx L"
b1110111 z"
0*
b1110111 g"
b111 r"
b1111 1
b101100 2
0%
1-
#540000
b1100111 ?"
b1101 >"
1%
0-
#545000
b1111 e"
1c"
0q"
0W"
0Y"
0v"
b101101 2
b1000 r"
1*
b1000 V"
0%
1-
#550000
b1000 ="
b1110111 >
b1110 >"
b1110111 ?"
1%
0-
#555000
b1111 #
b1111 M"
1&"
1("
1%"
15
b1111 !
0O"
0a"
b0 $
b0 U"
03
b10000 1
b101110 2
0%
1-
#560000
0b"
0-
#565000
1y"
1X"
b101 x"
1s"
1["
b1111 e"
1c"
1R"
1)
1'
b1000000000000000 ,
b1000000000000000 J"
b0 (
b0 L"
b101111 2
b10001 1
1-
#570000
0-
#575000
0*"
0R"
0+"
1v"
b1111 f"
1o"
1d"
1Z"
b0 e"
0c"
0["
0X"
0s"
0y"
b0 x"
b1000000000000001 ,
b1000000000000001 J"
b10001 (
b10001 L"
b1000000000000000 V"
b0 z"
0*
1&
b0 r"
13
b10010 1
b110000 2
1-
#577000
0""
#580000
0-
#585000
b0 >"
b0 #
b0 M"
0&"
0("
0%"
05
b0 !
1*"
1q"
b0 f"
0o"
0d"
0Z"
1v"
b0 "
b0 T"
1+"
b110001 2
b1 r"
b1111 $
b1111 U"
b10 g"
1a"
0&
1-
#587000
1""
#590000
b1110000 ?"
b1 >"
1%
1O"
1b"
0-
#595000
b10 #
b10 M"
1("
b10 !
b10 "
b10 T"
1h"
0q"
1v"
b100000 g"
b10 r"
b110010 2
0%
1-
#600000
b10 >"
b10 ?"
1%
0-
#605000
b1000 #
b1000 M"
0("
15
b1000 !
1q"
0h"
1v"
b1000 "
b1000 T"
b110011 2
b11 r"
b10000000 g"
0%
1-
#610000
b101000 ?"
b11 >"
1%
0-
#615000
b0 #
b0 M"
05
b0 !
b0 "
b0 T"
1i"
0q"
1v"
b1000 g"
b100 r"
b110100 2
0%
1-
#620000
b1000000000001000 ="
b100 >"
b10000000 ?"
1%
0-
#625000
1q"
0i"
1v"
b110101 2
b101 r"
b0 g"
0%
1-
#630000
b0 ?"
b101 >"
1%
0-
#635000
1l"
0q"
1v"
b110 r"
b110110 2
0%
1-
#640000
b1000000000000000 ="
b110 >"
1%
0-
#645000
1W"
1Y"
1q"
0l"
1v"
b110111 2
b111 r"
0%
1-
#650000
b111 >"
1%
0-
#655000
1t"
b1111 f"
1d"
1m"
1N"
0y"
1X"
b0 x"
0s"
0["
1R"
b0 e"
0c"
0q"
0W"
0Y"
0v"
b1000000000000001 V"
1*
b1000 r"
b111000 2
0%
1-
#660000
b1000000000000001 ="
b0 _
b1000 >"
1%
0-
#665000
b1 #
b1 M"
1&"
b1 !
0)
x'
bx ,
bx J"
bx (
bx L"
1v"
1W"
1Y"
1q"
b0 f"
0m"
0d"
0X"
0t"
b1 "
b1 T"
0N"
0R"
b111001 2
b10011 1
b111 r"
b10001 g"
0*
b10001 z"
0%
1-
#670000
b1 ?"
b1001 >"
1%
0-
#675000
b1111 e"
1c"
0q"
0W"
0Y"
0v"
b1000000000000010 V"
1*
b1000 r"
b111010 2
0%
1-
#680000
b1000000000000010 ="
b10001 `
b1010 >"
b10001 ?"
1%
0-
#685000
1t"
b1111 f"
1d"
1m"
1X"
b0 e"
0c"
b1111 #
b1111 M"
1R"
1N"
1&"
1("
1%"
15
b1111 !
1)
1'
b1000000000000010 ,
b1000000000000010 J"
b100010 (
b100010 L"
0O"
b111011 2
b10100 1
03
b0 $
b0 U"
0a"
0%
1-
#690000
0b"
0-
#695000
b10 #
b10 M"
0&"
1("
0%"
05
b10 !
0N"
0R"
b10 "
b10 T"
1v"
1W"
1Y"
1q"
b0 f"
0m"
0d"
0X"
0t"
0)
x'
bx ,
bx J"
bx (
bx L"
b100010 z"
0*
1a"
b100010 g"
b1111 $
b1111 U"
b111 r"
13
b10101 1
b111100 2
1-
#700000
b10010 ?"
b1011 >"
1%
1O"
1b"
0-
#705000
b1111 e"
1c"
0q"
0W"
0Y"
0v"
b111101 2
b1000 r"
1*
b1000000000000011 V"
0%
1-
#710000
b1000000000000011 ="
b100010 a
b1100 >"
b100010 ?"
1%
0-
#715000
b1111 #
b1111 M"
1t"
b1111 f"
1d"
1m"
1X"
b0 e"
0c"
1&"
1("
1%"
15
b1111 !
1R"
1N"
0O"
1)
1'
b1000000000000011 ,
b1000000000000011 J"
b110011 (
b110011 L"
0a"
b0 $
b0 U"
03
b10110 1
b111110 2
0%
1-
#720000
0b"
0-
#725000
b11 #
b11 M"
1&"
1("
0%"
05
b11 !
0)
x'
bx ,
bx J"
bx (
bx L"
1v"
1W"
1Y"
1q"
b0 f"
0m"
0d"
0X"
0t"
b11 "
b11 T"
0N"
0R"
b111111 2
b10111 1
13
b111 r"
b1111 $
b1111 U"
b110011 g"
1a"
0*
b110011 z"
1-
#730000
b100011 ?"
b1101 >"
1%
1O"
1b"
0-
#735000
b1111 e"
1c"
0q"
0W"
0Y"
0v"
1S"
b1000000000000100 V"
1*
b1000 r"
b1000000 2
0%
1-
#740000
b1000000000000100 ="
b110011 b
b1110 >"
b110011 ?"
1%
0-
#745000
1t"
b1111 f"
1d"
1m"
1X"
b0 e"
0c"
b1111 #
b1111 M"
1R"
1N"
1&"
1("
1%"
15
b1111 !
1)
1'
b1000000000000100 ,
b1000000000000100 J"
b1000100 (
b1000100 L"
0O"
b1000001 2
b11000 1
03
b0 $
b0 U"
0a"
0%
1-
#750000
0b"
0-
#755000
b100 #
b100 M"
0&"
0("
1%"
05
b100 !
0N"
0R"
b100 "
b100 T"
1v"
1W"
1Y"
1q"
b0 f"
0m"
0d"
0X"
0t"
b1000000000000101 ,
b1000000000000101 J"
b1010101 (
b1010101 L"
b1000100 z"
0*
1a"
b1000100 g"
b1111 $
b1111 U"
b111 r"
13
b11001 1
b1000010 2
1-
#760000
b110100 ?"
b1111 >"
1%
1O"
1b"
0-
#765000
1t"
b1111 f"
1d"
1m"
1X"
0q"
0W"
0Y"
0v"
1N"
1R"
b1000011 2
b1000 r"
1*
0S"
b1000000000000101 V"
0%
1-
#770000
b1000000000000101 ="
b1000100 c
b10000 >"
b1000100 ?"
1%
0-
#775000
b101 #
b101 M"
1&"
b101 !
0N"
0R"
b101 "
b101 T"
1v"
1W"
1Y"
1q"
b0 f"
0m"
0d"
0X"
0t"
0)
x'
bx ,
bx J"
bx (
bx L"
b1010101 z"
0*
b1010101 g"
b111 r"
b11010 1
b1000100 2
0%
1-
#780000
b1000101 ?"
b10001 >"
1%
0-
#785000
b1111 e"
1c"
0q"
0W"
0Y"
0v"
b1000101 2
b1000 r"
1*
b1000000000000110 V"
0%
1-
#790000
b1000000000000110 ="
b1010101 d
b10010 >"
b1010101 ?"
1%
0-
#795000
b1111 #
b1111 M"
1t"
b1111 f"
1d"
1m"
1X"
b0 e"
0c"
1&"
1("
1%"
15
b1111 !
1R"
1N"
0O"
1)
1'
b1000000000000110 ,
b1000000000000110 J"
b1100110 (
b1100110 L"
0a"
b0 $
b0 U"
03
b11011 1
b1000110 2
0%
1-
#800000
0b"
0-
#805000
b110 #
b110 M"
0&"
1("
1%"
05
b110 !
0)
x'
bx ,
bx J"
bx (
bx L"
1v"
1W"
1Y"
1q"
b0 f"
0m"
0d"
0X"
0t"
b110 "
b110 T"
0N"
0R"
b1000111 2
b11100 1
13
b111 r"
b1111 $
b1111 U"
b1100110 g"
1a"
0*
b1100110 z"
1-
#810000
b1010110 ?"
b10011 >"
1%
1O"
1b"
0-
#815000
b1111 e"
1c"
0q"
0W"
0Y"
0v"
b1000000000000111 V"
1*
b1000 r"
b1001000 2
0%
1-
#820000
b1000000000000111 ="
b1100110 e
b10100 >"
b1100110 ?"
1%
0-
#825000
1t"
b1111 f"
1d"
1m"
1X"
b0 e"
0c"
b1111 #
b1111 M"
1R"
1N"
1&"
1("
1%"
15
b1111 !
1)
1'
b1000000000000111 ,
b1000000000000111 J"
b1110111 (
b1110111 L"
0O"
b1001001 2
b11101 1
03
b0 $
b0 U"
0a"
0%
1-
#830000
0b"
0-
#835000
b111 #
b111 M"
1&"
1("
1%"
05
b111 !
0N"
0R"
b111 "
b111 T"
1v"
1W"
1Y"
1q"
b0 f"
0m"
0d"
0X"
0t"
0)
x'
bx ,
bx J"
bx (
bx L"
b1110111 z"
0*
1a"
b1110111 g"
b1111 $
b1111 U"
b111 r"
13
b11110 1
b1001010 2
1-
#840000
b1100111 ?"
b10101 >"
1%
1O"
1b"
0-
#845000
b1111 e"
1c"
0q"
0W"
0Y"
0v"
b1001011 2
b1000 r"
1*
b1000000000001000 V"
0%
1-
#850000
b1000000000001000 ="
b1110111 f
b10110 >"
b1110111 ?"
1%
0-
#855000
b1111 #
b1111 M"
1y"
1X"
b101 x"
1s"
1["
b1111 e"
1c"
1&"
1("
1%"
15
b1111 !
1R"
0O"
1)
1'
b1000000000000111 ,
b1000000000000111 J"
b10001000 (
b10001000 L"
0a"
b0 $
b0 U"
03
b11111 1
b1001100 2
0%
1-
#860000
0b"
0-
#865000
0*"
b10011001 (
b10011001 L"
1v"
b1111 f"
1o"
1d"
1Z"
b0 e"
0c"
0["
0X"
0s"
0y"
b0 x"
0+"
0R"
b1001101 2
b100000 1
13
b0 r"
1&
0*
b10001000 z"
b1000000000000111 V"
1-
#867000
0""
#870000
0-
