SIM/tb_UART/tb.vcd
$date
	Tue Dec 30 14:39:24 2025
$end
$version
	Icarus Verilog
$end
$timescale
	10ps
$end
$scope module tb $end
$var wire 1 ! uart_rxd $end
$var wire 1 " uart_txd $end
$var wire 1 # io_write $end
$var wire 8 $ io_wdata [7:0] $end
$var wire 1 % io_req $end
$var wire 1 & io_rdy $end
$var wire 8 ' io_rdata [7:0] $end
$var wire 2 ( io_addr [1:0] $end
$var reg 1 ) clk $end
$var reg 8 * rdata [7:0] $end
$var reg 1 + rdphase $end
$var reg 1 , res $end
$var reg 16 - seq [15:0] $end
$var reg 32 . tb_cycle_counter [31:0] $end
$var reg 1 / wdphase $end
$var integer 32 0 i [31:0] $end
$scope module U_UART $end
$var wire 1 ) CLK $end
$var wire 2 1 IO_ADDR [1:0] $end
$var wire 1 % IO_REQ $end
$var wire 8 2 IO_WDATA [7:0] $end
$var wire 1 # IO_WRITE $end
$var wire 1 , RES $end
$var wire 1 ! UART_RXD $end
$var wire 1 3 _unused $end
$var wire 1 4 div0_aphase $end
$var wire 1 5 div1_aphase $end
$var wire 1 6 re $end
$var wire 1 7 rx_rdy $end
$var wire 1 8 rxd_aphase $end
$var wire 1 9 tx_rdy $end
$var wire 1 : txd_aphase $end
$var wire 1 ; we $end
$var wire 1 < tx_full $end
$var wire 1 = sio_ce_x4 $end
$var wire 1 > sio_ce $end
$var wire 1 ? rx_empty $end
$var wire 1 @ rts $end
$var wire 8 A dout [7:0] $end
$var wire 1 " UART_TXD $end
$var wire 1 & IO_RDY $end
$var wire 8 B IO_RDATA [7:0] $end
$var reg 8 C din [7:0] $end
$var reg 8 D div0 [7:0] $end
$var reg 1 E div0_dphase $end
$var reg 8 F div1 [7:0] $end
$var reg 1 G div1_dphase $end
$var reg 1 H rxd_dphase $end
$var reg 1 I txd_dphase $end
$scope module BRG $end
$var wire 1 ) clk $end
$var wire 8 J div0 [7:0] $end
$var wire 8 K div1 [7:0] $end
$var wire 1 L rst $end
$var reg 1 M br_clr $end
$var reg 8 N br_cnt [7:0] $end
$var reg 2 O cnt [1:0] $end
$var reg 8 P ps [7:0] $end
$var reg 1 Q ps_clr $end
$var reg 1 > sio_ce $end
$var reg 1 R sio_ce_r $end
$var reg 1 = sio_ce_x4 $end
$var reg 1 S sio_ce_x4_r $end
$var reg 1 T sio_ce_x4_t $end
$upscope $end
$scope module U_SASC_TOP $end
$var wire 1 U _unused $end
$var wire 1 ) clk $end
$var wire 1 V cts_i $end
$var wire 8 W din_i [7:0] $end
$var wire 1 X load_e $end
$var wire 1 6 re_i $end
$var wire 1 Y rst $end
$var wire 1 Z rx_we $end
$var wire 1 ! rxd_i $end
$var wire 1 > sio_ce $end
$var wire 1 = sio_ce_x4 $end
$var wire 1 [ start $end
$var wire 1 ; we_i $end
$var wire 1 \ txf_empty $end
$var wire 8 ] txd_p [7:0] $end
$var wire 1 ^ rxf_full $end
$var wire 1 < full_o $end
$var wire 1 ? empty_o $end
$var wire 8 _ dout_o [7:0] $end
$var parameter 1 ` IDLE_BIT $end
$var parameter 1 a START_BIT $end
$var parameter 1 b STOP_BIT $end
$var reg 1 c change $end
$var reg 2 d dpll_next_state [1:0] $end
$var reg 2 e dpll_state [1:0] $end
$var reg 10 f hold_reg [9:0] $end
$var reg 1 g load $end
$var reg 1 h load_r $end
$var reg 1 @ rts_o $end
$var reg 4 i rx_bit_cnt [3:0] $end
$var reg 1 j rx_go $end
$var reg 1 k rx_sio_ce $end
$var reg 1 l rx_sio_ce_d $end
$var reg 1 m rx_sio_ce_r1 $end
$var reg 1 n rx_sio_ce_r2 $end
$var reg 1 o rx_valid $end
$var reg 1 p rx_valid_r $end
$var reg 6 q rxd_dly [5:0] $end
$var reg 1 r rxd_r $end
$var reg 1 s rxd_r1 $end
$var reg 1 t rxd_r2 $end
$var reg 1 u rxd_s $end
$var reg 10 v rxr [9:0] $end
$var reg 1 w shift_en $end
$var reg 1 x shift_en_r $end
$var reg 4 y tx_bit_cnt [3:0] $end
$var reg 1 " txd_o $end
$var reg 1 z txf_empty_r $end
$scope module rx_fifo $end
$var wire 1 ) clk $end
$var wire 1 { clr $end
$var wire 8 | din [7:0] $end
$var wire 8 } dout [7:0] $end
$var wire 1 ? empty $end
$var wire 1 ^ full $end
$var wire 1 6 re $end
$var wire 1 Y rst $end
$var wire 1 Z we $end
$var wire 2 ~ wp_p2 [1:0] $end
$var wire 2 !" wp_p1 [1:0] $end
$var wire 2 "" rp_p1 [1:0] $end
$var wire 1 #" _unused $end
$var reg 1 $" gb $end
$var reg 2 %" rp [1:0] $end
$var reg 2 &" wp [1:0] $end
$upscope $end
$scope module tx_fifo $end
$var wire 1 ) clk $end
$var wire 1 '" clr $end
$var wire 8 (" din [7:0] $end
$var wire 8 )" dout [7:0] $end
$var wire 1 \ empty $end
$var wire 1 < full $end
$var wire 1 X re $end
$var wire 1 Y rst $end
$var wire 1 ; we $end
$var wire 2 *" wp_p2 [1:0] $end
$var wire 2 +" wp_p1 [1:0] $end
$var wire 2 ," rp_p1 [1:0] $end
$var wire 1 -" _unused $end
$var reg 1 ." gb $end
$var reg 2 /" rp [1:0] $end
$var reg 2 0" wp [1:0] $end
$upscope $end
$upscope $end
$upscope $end
$scope task CONFIG_IO_SEQUENCE $end
$var reg 2 1" ADDR [1:0] $end
$var reg 1 2" TRANS $end
$var reg 8 3" WDATA [7:0] $end
$var reg 1 4" WRITE $end
$upscope $end
$scope task INIT_IO_SEQUENCE $end
$upscope $end
$upscope $end
$enddefinitions $end
$comment Show the parameter values. $end
$dumpall
1b
0a
1`
$end
#0
$dumpvars
04"
bx 3"
12"
b0 1"
b0 0"
b0 /"
0."
0-"
b1 ,"
b1 +"
b10 *"
bx )"
b0 ("
0'"
b0 &"
b0 %"
0$"
0#"
b1 ""
b1 !"
b10 ~
bx }
bx |
0{
1z
b1001 y
0x
xw
bx v
xu
xt
1s
xr
bx q
xp
xo
xn
xm
1l
xk
xj
b1010 i
xh
xg
bx f
b1 e
b10 d
0c
bx _
0^
bx ]
1\
x[
xZ
0Y
xX
b0 W
0V
xU
xT
xS
xR
xQ
b0 P
b0 O
b0 N
xM
0L
b0 K
b0 J
0I
0H
0G
b0 F
0E
b0 D
b0 C
b0 B
bx A
x@
1?
x>
x=
0<
0;
0:
19
08
07
06
05
04
x3
b0 2
b0 1
b10000000000000000 0
x/
bx .
b110000 -
1,
x+
bx *
0)
b0 (
b0 '
1&
0%
b0 $
0#
1"
1!
$end
#5000
0Z
0X
x#
bx (
bx 1
bx $
bx 2
0g
0w
bx1 q
0j
0o
03
0@
1m
1Q
1M
1R
b0 .
b0 -
0+
0/
b0 *
1)
#10000
0)
#15000
0U
0>
1S
1n
0p
bx11 q
0h
1)
#20000
0)
#25000
bx111 q
0k
0T
1)
#30000
0)
#35000
0=
bx1111 q
1)
#40000
0)
#45000
bx11111 q
1)
#50000
0)
#55000
b111111 q
1)
#60000
0)
#65000
0[
1u
1)
#70000
0)
#75000
1r
1)
#80000
0)
#85000
1)
#90000
0)
#95000
1)
#100000
1Y
1L
0)
0,
#105000
b1 .
b1 -
1)
#110000
0)
#115000
b10 -
b10 .
1)
#120000
0)
#125000
b11 .
b11 -
1)
#130000
0)
#135000
14
1%
1#
b10 (
b10 1
b10 $
b10 2
b100 -
b100 .
1)
#140000
0)
#145000
04
15
b10 '
b10 B
b11 (
b11 1
b11 $
b11 2
b101 .
b101 -
1/
b10 D
b10 J
1E
1)
#150000
0)
#155000
05
1:
b11 '
b11 B
b0 (
b0 1
b10001001 $
b10001001 2
0Q
0E
1G
b11 F
b11 K
b110 -
b110 .
1)
#160000
0)
#165000
18
0:
b0 '
b0 B
0#
bx $
bx 2
1;
0M
b1 P
b111 .
b111 -
1I
b10001001 C
b10001001 W
b10001001 ("
0G
1)
#170000
0)
#175000
08
0\
0&
0;
bx '
bx B
06
1#
b10101011 $
b10101011 2
0S
b10001001 ]
b10001001 )"
b10 P
b10 +"
1-"
b11 *"
b1 0"
b0 C
b0 W
b0 ("
0I
1H
0/
1+
b1000 -
b1000 .
1)
#180000
0)
#185000
1Q
b11 P
b1001 .
1)
#190000
0)
#195000
0Q
b0 P
b1 N
b1010 .
1)
#200000
0)
#205000
b1 P
b1011 .
1)
#210000
0)
#215000
b10 P
b1100 .
1)
#220000
0)
#225000
1Q
b11 P
b1101 .
1)
#230000
0)
#235000
0Q
b0 P
b10 N
b1110 .
1)
#240000
0)
#245000
b1 P
b1111 .
1)
#250000
0)
#255000
b10 P
b10000 .
1)
#260000
0)
#265000
1Q
b11 P
b10001 .
1)
#270000
0)
#275000
0Q
b0 P
b11 N
b10010 .
1)
#280000
0)
#285000
1M
b1 P
b10011 .
1)
#290000
0)
#295000
1T
1S
b10 P
b0 N
b1 O
b10100 .
1)
#300000
0)
#305000
1Q
0M
0T
1=
0R
b11 P
b10101 .
1)
#310000
0)
#315000
b11 d
0l
0=
0S
0Q
1t
b0 P
b1 N
b10 e
b10110 .
1)
#320000
0)
#325000
0m
b1 P
b10111 .
1)
#330000
0)
#335000
0n
b10 P
b11000 .
1)
#340000
0)
#345000
1Q
b11 P
b11001 .
1)
#350000
0)
#355000
0Q
b0 P
b10 N
b11010 .
1)
#360000
0)
#365000
b1 P
b11011 .
1)
#370000
0)
#375000
b10 P
b11100 .
1)
#380000
0)
#385000
1Q
b11 P
b11101 .
1)
#390000
0)
#395000
0Q
b0 P
b11 N
b11110 .
1)
#400000
0)
#405000
1M
b1 P
b11111 .
1)
#410000
0)
#415000
1T
1S
b10 P
b0 N
b10 O
b100000 .
1)
#420000
0)
#425000
1Q
0M
0T
1=
b11 P
b100001 .
1)
#430000
0)
#435000
b0 d
0=
0S
0Q
b0 P
b1 N
b11 e
b100010 .
1)
#440000
0)
#445000
b1 P
b100011 .
1)
#450000
0)
#455000
b10 P
b100100 .
1)
#460000
0)
#465000
1Q
b11 P
b100101 .
1)
#470000
0)
#475000
0Q
b0 P
b10 N
b100110 .
1)
#480000
0)
#485000
b1 P
b100111 .
1)
#490000
0)
#495000
b10 P
b101000 .
1)
#500000
0)
#505000
1Q
b11 P
b101001 .
1)
#510000
0)
#515000
0Q
b0 P
b11 N
b101010 .
1)
#520000
0)
#525000
1M
b1 P
b101011 .
1)
#530000
0)
#535000
1T
1S
b10 P
b0 N
b11 O
b101100 .
1)
#540000
0)
#545000
1Q
0M
0T
1=
b11 P
b101101 .
1)
#550000
0)
#555000
b1 d
0=
0S
0Q
b0 P
b1 N
b0 e
b101110 .
1)
#560000
0)
#565000
b1 P
b101111 .
1)
#570000
0)
#575000
b10 P
b110000 .
1)
#580000
0)
#585000
1Q
b11 P
b110001 .
1)
#590000
0)
#595000
0Q
b0 P
b10 N
b110010 .
1)
#600000
0)
#605000
b1 P
b110011 .
1)
#610000
0)
#615000
b10 P
b110100 .
1)
#620000
0)
#625000
1Q
b11 P
b110101 .
1)
#630000
0)
#635000
0Q
b0 P
b11 N
b110110 .
1)
#640000
0)
#645000
1M
b1 P
b110111 .
1)
#650000
0)
#655000
1T
1S
b10 P
b0 N
b0 O
b111000 .
1)
#660000
0)
#665000
1Q
0M
0T
1=
1R
1>
b11 P
b111001 .
1)
#670000
0)
#675000
b10 d
1l
0>
0=
0S
0Q
b0 P
b1 N
0z
b1 e
b111010 .
1)
#680000
0)
#685000
1g
1m
b1 P
b111011 .
1)
#690000
0)
#695000
xU
1k
1n
1h
b10 P
b111100 .
1)
#700000
0)
#705000
0k
1Q
b11 P
b111101 .
1)
#710000
0)
#715000
0Q
b0 P
b10 N
b111110 .
1)
#720000
0)
#725000
b1 P
b111111 .
1)
#730000
0)
#735000
b10 P
b1000000 .
1)
#740000
0)
#745000
1Q
b11 P
b1000001 .
1)
#750000
0)
#755000
0Q
b0 P
b11 N
b1000010 .
1)
#760000
0)
#765000
1M
b1 P
b1000011 .
1)
#770000
0)
#775000
1T
1S
b10 P
b0 N
b1 O
b1000100 .
1)
#780000
0)
#785000
1Q
0M
0T
1=
0R
b11 P
b1000101 .
1)
#790000
0)
#795000
b11 d
0l
0=
0S
0Q
b0 P
b1 N
b10 e
b1000110 .
1)
#800000
0)
#805000
0m
b1 P
b1000111 .
1)
#810000
0)
#815000
0n
b10 P
b1001000 .
1)
#820000
0)
#825000
1Q
b11 P
b1001001 .
1)
#830000
0)
#835000
0Q
b0 P
b10 N
b1001010 .
1)
#840000
0)
#845000
b1 P
b1001011 .
1)
#850000
0)
#855000
b10 P
b1001100 .
1)
#860000
0)
#865000
1Q
b11 P
b1001101 .
1)
#870000
0)
#875000
0Q
b0 P
b11 N
b1001110 .
1)
#880000
0)
#885000
1M
b1 P
b1001111 .
1)
#890000
0)
#895000
1T
1S
b10 P
b0 N
b10 O
b1010000 .
1)
#900000
0)
#905000
1Q
0M
0T
1=
b11 P
b1010001 .
1)
#910000
0)
#915000
b0 d
0=
0S
0Q
b0 P
b1 N
b11 e
b1010010 .
1)
#920000
0)
#925000
b1 P
b1010011 .
1)
#930000
0)
#935000
b10 P
b1010100 .
1)
#940000
0)
#945000
1Q
b11 P
b1010101 .
1)
#950000
0)
#955000
0Q
b0 P
b10 N
b1010110 .
1)
#960000
0)
#965000
b1 P
b1010111 .
1)
#970000
0)
#975000
b10 P
b1011000 .
1)
#980000
0)
#985000
1Q
b11 P
b1011001 .
1)
#990000
0)
#995000
0Q
b0 P
b11 N
b1011010 .
1)
#1000000
0)
#1005000
1M
b1 P
b1011011 .
1)
#1010000
0)
#1015000
1T
1S
b10 P
b0 N
b11 O
b1011100 .
1)
#1020000
0)
#1025000
1Q
0M
0T
1=
b11 P
b1011101 .
1)
#1030000
0)
#1035000
b1 d
0=
0S
0Q
b0 P
b1 N
b0 e
b1011110 .
1)
#1040000
0)
#1045000
b1 P
b1011111 .
1)
#1050000
0)
#1055000
b10 P
b1100000 .
1)
#1060000
0)
#1065000
1Q
b11 P
b1100001 .
1)
#1070000
0)
#1075000
0Q
b0 P
b10 N
b1100010 .
1)
#1080000
0)
#1085000
b1 P
b1100011 .
1)
#1090000
0)
#1095000
b10 P
b1100100 .
1)
#1100000
0)
#1105000
1Q
b11 P
b1100101 .
1)
#1110000
0)
#1115000
0Q
b0 P
b11 N
b1100110 .
1)
#1120000
0)
#1125000
1M
b1 P
b1100111 .
1)
#1130000
0)
#1135000
1T
1S
b10 P
b0 N
b0 O
b1101000 .
1)
#1140000
0)
#1145000
1X
1Q
0M
0T
1=
1R
1>
b11 P
b1101001 .
1)
#1150000
0)
#1155000
0X
1\
b10 d
1l
0>
0=
0S
0Q
b1100010010 f
b0 P
b1 N
b10 ,"
bx ]
bx )"
b1 /"
b0 y
b1 e
b1101010 .
1)
#1160000
0)
#1165000
1w
1m
b1 P
b1101011 .
1)
#1170000
0)
#1175000
1k
1n
0g
b10 P
b1101100 .
1)
#1180000
0)
#1185000
0U
0h
0k
1Q
b11 P
b1101101 .
1)
#1190000
0)
#1195000
0Q
b0 P
b10 N
b1101110 .
1)
#1200000
0)
#1205000
b1 P
b1101111 .
1)
#1210000
0)
#1215000
b10 P
b1110000 .
1)
#1220000
0)
#1225000
1Q
b11 P
b1110001 .
1)
#1230000
0)
#1235000
0Q
b0 P
b11 N
b1110010 .
1)
#1240000
0)
#1245000
1M
b1 P
b1110011 .
1)
#1250000
0)
#1255000
1T
1S
b10 P
b0 N
b1 O
b1110100 .
1)
#1260000
0)
#1265000
1Q
0M
0T
1=
0R
b11 P
b1110101 .
1)
#1270000
0)
#1275000
b11 d
0l
0=
0S
0Q
b0 P
b1 N
b10 e
b1110110 .
1)
#1280000
0)
#1285000
0m
b1 P
b1110111 .
1)
#1290000
0)
#1295000
0n
b10 P
b1111000 .
1)
#1300000
0)
#1305000
1Q
b11 P
b1111001 .
1)
#1310000
0)
#1315000
0Q
b0 P
b10 N
b1111010 .
1)
#1320000
0)
#1325000
b1 P
b1111011 .
1)
#1330000
0)
#1335000
b10 P
b1111100 .
1)
#1340000
0)
#1345000
1Q
b11 P
b1111101 .
1)
#1350000
0)
#1355000
0Q
b0 P
b11 N
b1111110 .
1)
#1360000
0)
#1365000
1M
b1 P
b1111111 .
1)
#1370000
0)
#1375000
1T
1S
b10 P
b0 N
b10 O
b10000000 .
1)
#1380000
0)
#1385000
1Q
0M
0T
1=
b11 P
b10000001 .
1)
#1390000
0)
#1395000
b0 d
0=
0S
0Q
b0 P
b1 N
b11 e
b10000010 .
1)
#1400000
0)
#1405000
b1 P
b10000011 .
1)
#1410000
0)
#1415000
b10 P
b10000100 .
1)
#1420000
0)
#1425000
1Q
b11 P
b10000101 .
1)
#1430000
0)
#1435000
0Q
b0 P
b10 N
b10000110 .
1)
#1440000
0)
#1445000
b1 P
b10000111 .
1)
#1450000
0)
#1455000
b10 P
b10001000 .
1)
#1460000
0)
#1465000
1Q
b11 P
b10001001 .
1)
#1470000
0)
#1475000
0Q
b0 P
b11 N
b10001010 .
1)
#1480000
0)
#1485000
1M
b1 P
b10001011 .
1)
#1490000
0)
#1495000
1T
1S
b10 P
b0 N
b11 O
b10001100 .
1)
#1500000
0)
#1505000
1Q
0M
0T
1=
b11 P
b10001101 .
1)
#1510000
0)
#1515000
b1 d
0=
0S
0Q
b0 P
b1 N
b0 e
b10001110 .
1)
#1520000
0)
#1525000
b1 P
b10001111 .
1)
#1530000
0)
#1535000
b10 P
b10010000 .
1)
#1540000
0)
#1545000
1Q
b11 P
b10010001 .
1)
#1550000
0)
#1555000
0Q
b0 P
b10 N
b10010010 .
1)
#1560000
0)
#1565000
b1 P
b10010011 .
1)
#1570000
0)
#1575000
b10 P
b10010100 .
1)
#1580000
0)
#1585000
1Q
b11 P
b10010101 .
1)
#1590000
0)
#1595000
0Q
b0 P
b11 N
b10010110 .
1)
#1600000
0)
#1605000
1M
b1 P
b10010111 .
1)
#1610000
0)
#1615000
1T
1S
b10 P
b0 N
b0 O
b10011000 .
1)
#1620000
0)
#1625000
1Q
0M
0T
1=
1R
1>
b11 P
b10011001 .
1)
#1630000
0)
#1635000
b10 d
1l
0>
0=
0S
0Q
b1110001001 f
b0 P
b1 N
1z
0!
0"
b1 y
1x
b1 e
b10011010 .
1)
#1640000
0)
#1645000
b111110 q
1m
b1 P
b10011011 .
1)
#1650000
0)
#1655000
1k
1n
b111100 q
b10 P
b10011100 .
1)
#1660000
0)
#1665000
b11 d
1l
b111000 q
0k
1Q
b11 P
1c
b10011101 .
1)
#1670000
0)
#1675000
0Q
b110000 q
b0 P
b10 N
b10011110 .
1)
#1680000
0)
#1685000
b100000 q
b1 P
b10011111 .
1)
#1690000
0)
#1695000
b0 q
b10 P
b10100000 .
1)
#1700000
0)
#1705000
1[
0u
1Q
b11 P
b10100001 .
1)
#1710000
0)
#1715000
0[
0Q
0r
b0 P
b11 N
b0 i
b10100010 .
1)
#1720000
0)
#1725000
1j
1M
b1 P
b10100011 .
1)
#1730000
0)
#1735000
1T
1S
b10 P
b0 N
b1 O
b10100100 .
1)
#1740000
0)
#1745000
1Q
0M
0T
1=
0R
b11 P
b10100101 .
1)
#1750000
0)
#1755000
b0 d
0l
0=
0S
0Q
b0 P
b1 N
0s
b11 e
b10100110 .
1)
#1760000
0)
#1765000
0m
b1 P
b10100111 .
1)
#1770000
0)
#1775000
0n
b10 P
b10101000 .
1)
#1780000
0)
#1785000
1Q
b11 P
b10101001 .
1)
#1790000
0)
#1795000
0Q
b0 P
b10 N
b10101010 .
1)
#1800000
0)
#1805000
b1 P
b10101011 .
1)
#1810000
0)
#1815000
b10 P
b10101100 .
1)
#1820000
0)
#1825000
1Q
b11 P
b10101101 .
1)
#1830000
0)
#1835000
0Q
b0 P
b11 N
b10101110 .
1)
#1840000
0)
#1845000
1M
b1 P
b10101111 .
1)
#1850000
0)
#1855000
1T
1S
b10 P
b0 N
b10 O
b10110000 .
1)
#1860000
0)
#1865000
1Q
0M
0T
1=
b11 P
b10110001 .
1)
#1870000
0)
#1875000
b1 d
0=
0S
0Q
0t
b0 P
b1 N
0c
b0 e
b10110010 .
1)
#1880000
0)
#1885000
b1 P
b10110011 .
1)
#1890000
0)
#1895000
b10 P
b10110100 .
1)
#1900000
0)
#1905000
1Q
b11 P
b10110101 .
1)
#1910000
0)
#1915000
0Q
b0 P
b10 N
b10110110 .
1)
#1920000
0)
#1925000
b1 P
b10110111 .
1)
#1930000
0)
#1935000
b10 P
b10111000 .
1)
#1940000
0)
#1945000
1Q
b11 P
b10111001 .
1)
#1950000
0)
#1955000
0Q
b0 P
b11 N
b10111010 .
1)
#1960000
0)
#1965000
1M
b1 P
b10111011 .
1)
#1970000
0)
#1975000
1T
1S
b10 P
b0 N
b11 O
b10111100 .
1)
#1980000
0)
#1985000
1Q
0M
0T
1=
b11 P
b10111101 .
1)
#1990000
0)
#1995000
b10 d
1l
0=
0S
0Q
b0 P
b1 N
b1 e
b10111110 .
1)
#2000000
0)
#2005000
1m
b1 P
b10111111 .
1)
#2010000
0)
#2015000
1k
1n
b10 P
b11000000 .
1)
#2020000
0)
#2025000
b0xxxxxxx |
b0xxxxxxxxx v
0k
1Q
b11 P
b1 i
b11000001 .
1)
#2030000
0)
#2035000
0Q
b0 P
b10 N
b11000010 .
1)
#2040000
0)
#2045000
b1 P
b11000011 .
1)
#2050000
0)
#2055000
b10 P
b11000100 .
1)
#2060000
0)
#2065000
1Q
b11 P
b11000101 .
1)
#2070000
0)
#2075000
0Q
b0 P
b11 N
b11000110 .
1)
#2080000
0)
#2085000
1M
b1 P
b11000111 .
1)
#2090000
0)
#2095000
1T
1S
b10 P
b0 N
b0 O
b11001000 .
1)
#2100000
0)
#2105000
1Q
0M
0T
1=
1R
1>
b11 P
b11001001 .
1)
#2110000
0)
#2115000
b11 d
0l
0>
0=
0S
0Q
b1111000100 f
b0 P
b1 N
1!
1"
b10 y
b10 e
b11001010 .
1)
#2120000
0)
#2125000
b1 q
0m
b1 P
b11001011 .
1)
#2130000
0)
#2135000
0n
b11 q
b10 P
b11001100 .
1)
#2140000
0)
#2145000
b0 d
b111 q
1Q
b11 P
1c
b11001101 .
1)
#2150000
0)
#2155000
0Q
b1111 q
b0 P
b10 N
b11001110 .
1)
#2160000
0)
#2165000
b11111 q
b1 P
b11001111 .
1)
#2170000
0)
#2175000
b111111 q
b10 P
b11010000 .
1)
#2180000
0)
#2185000
1u
1Q
b11 P
b11010001 .
1)
#2190000
0)
#2195000
0Q
1r
b0 P
b11 N
b11010010 .
1)
#2200000
0)
#2205000
1M
b1 P
b11010011 .
1)
#2210000
0)
#2215000
1T
1S
b10 P
b0 N
b1 O
b11010100 .
1)
#2220000
0)
#2225000
1Q
0M
0T
1=
0R
b11 P
b11010101 .
1)
#2230000
0)
#2235000
0=
0S
0Q
b0 P
b1 N
1s
b0 e
b11010110 .
1)
#2240000
0)
#2245000
b1 P
b11010111 .
1)
#2250000
0)
#2255000
b10 P
b11011000 .
1)
#2260000
0)
#2265000
1Q
b11 P
b11011001 .
1)
#2270000
0)
#2275000
0Q
b0 P
b10 N
b11011010 .
1)
#2280000
0)
#2285000
b1 P
b11011011 .
1)
#2290000
0)
#2295000
b10 P
b11011100 .
1)
#2300000
0)
#2305000
1Q
b11 P
b11011101 .
1)
#2310000
0)
#2315000
0Q
b0 P
b11 N
b11011110 .
1)
#2320000
0)
#2325000
1M
b1 P
b11011111 .
1)
#2330000
0)
#2335000
1T
1S
b10 P
b0 N
b10 O
b11100000 .
1)
#2340000
0)
#2345000
1Q
0M
0T
1=
b11 P
b11100001 .
1)
#2350000
0)
#2355000
b1 d
0=
0S
0Q
1t
b0 P
b1 N
0c
b11100010 .
1)
#2360000
0)
#2365000
b1 P
b11100011 .
1)
#2370000
0)
#2375000
b10 P
b11100100 .
1)
#2380000
0)
#2385000
1Q
b11 P
b11100101 .
1)
#2390000
0)
#2395000
0Q
b0 P
b10 N
b11100110 .
1)
#2400000
0)
#2405000
b1 P
b11100111 .
1)
#2410000
0)
#2415000
b10 P
b11101000 .
1)
#2420000
0)
#2425000
1Q
b11 P
b11101001 .
1)
#2430000
0)
#2435000
0Q
b0 P
b11 N
b11101010 .
1)
#2440000
0)
#2445000
1M
b1 P
b11101011 .
1)
#2450000
0)
#2455000
1T
1S
b10 P
b0 N
b11 O
b11101100 .
1)
#2460000
0)
#2465000
1Q
0M
0T
1=
b11 P
b11101101 .
1)
#2470000
0)
#2475000
b10 d
1l
0=
0S
0Q
b0 P
b1 N
b1 e
b11101110 .
1)
#2480000
0)
#2485000
1m
b1 P
b11101111 .
1)
#2490000
0)
#2495000
1k
1n
b10 P
b11110000 .
1)
#2500000
0)
#2505000
b10xxxxxx |
b10xxxxxxxx v
0k
1Q
b11 P
b10 i
b11110001 .
1)
#2510000
0)
#2515000
0Q
b0 P
b10 N
b11110010 .
1)
#2520000
0)
#2525000
b1 P
b11110011 .
1)
#2530000
0)
#2535000
b10 P
b11110100 .
1)
#2540000
0)
#2545000
1Q
b11 P
b11110101 .
1)
#2550000
0)
#2555000
0Q
b0 P
b11 N
b11110110 .
1)
#2560000
0)
#2565000
1M
b1 P
b11110111 .
1)
#2570000
0)
#2575000
1T
1S
b10 P
b0 N
b0 O
b11111000 .
1)
#2580000
0)
#2585000
1Q
0M
0T
1=
1R
1>
b11 P
b11111001 .
1)
#2590000
0)
#2595000
b11 d
0l
0>
0=
0S
0Q
b1111100010 f
b0 P
b1 N
0!
0"
b11 y
b10 e
b11111010 .
1)
#2600000
0)
#2605000
b111110 q
0m
b1 P
b11111011 .
1)
#2610000
0)
#2615000
0n
b111100 q
b10 P
b11111100 .
1)
#2620000
0)
#2625000
b0 d
b111000 q
1Q
b11 P
1c
b11111101 .
1)
#2630000
0)
#2635000
0Q
b110000 q
b0 P
b10 N
b11111110 .
1)
#2640000
0)
#2645000
b100000 q
b1 P
b11111111 .
1)
#2650000
0)
#2655000
b0 q
b10 P
b100000000 .
1)
#2660000
0)
#2665000
1[
0u
1Q
b11 P
b100000001 .
1)
#2670000
0)
#2675000
0[
0Q
0r
b0 P
b11 N
b100000010 .
1)
#2680000
0)
#2685000
1M
b1 P
b100000011 .
1)
#2690000
0)
#2695000
1T
1S
b10 P
b0 N
b1 O
b100000100 .
1)
#2700000
0)
#2705000
1Q
0M
0T
1=
0R
b11 P
b100000101 .
1)
#2710000
0)
#2715000
0=
0S
0Q
b0 P
b1 N
0s
b0 e
b100000110 .
1)
#2720000
0)
#2725000
b1 P
b100000111 .
1)
#2730000
0)
#2735000
b10 P
b100001000 .
1)
#2740000
0)
#2745000
1Q
b11 P
b100001001 .
1)
#2750000
0)
#2755000
0Q
b0 P
b10 N
b100001010 .
1)
#2760000
0)
#2765000
b1 P
b100001011 .
1)
#2770000
0)
#2775000
b10 P
b100001100 .
1)
#2780000
0)
#2785000
1Q
b11 P
b100001101 .
1)
#2790000
0)
#2795000
0Q
b0 P
b11 N
b100001110 .
1)
#2800000
0)
#2805000
1M
b1 P
b100001111 .
1)
#2810000
0)
#2815000
1T
1S
b10 P
b0 N
b10 O
b100010000 .
1)
#2820000
0)
#2825000
1Q
0M
0T
1=
b11 P
b100010001 .
1)
#2830000
0)
#2835000
b1 d
0=
0S
0Q
0t
b0 P
b1 N
0c
b100010010 .
1)
#2840000
0)
#2845000
b1 P
b100010011 .
1)
#2850000
0)
#2855000
b10 P
b100010100 .
1)
#2860000
0)
#2865000
1Q
b11 P
b100010101 .
1)
#2870000
0)
#2875000
0Q
b0 P
b10 N
b100010110 .
1)
#2880000
0)
#2885000
b1 P
b100010111 .
1)
#2890000
0)
#2895000
b10 P
b100011000 .
1)
#2900000
0)
#2905000
1Q
b11 P
b100011001 .
1)
#2910000
0)
#2915000
0Q
b0 P
b11 N
b100011010 .
1)
#2920000
0)
#2925000
1M
b1 P
b100011011 .
1)
#2930000
0)
#2935000
1T
1S
b10 P
b0 N
b11 O
b100011100 .
1)
#2940000
0)
#2945000
1Q
0M
0T
1=
b11 P
b100011101 .
1)
#2950000
0)
#2955000
b10 d
1l
0=
0S
0Q
b0 P
b1 N
b1 e
b100011110 .
1)
#2960000
0)
#2965000
1m
b1 P
b100011111 .
1)
#2970000
0)
#2975000
1k
1n
b10 P
b100100000 .
1)
#2980000
0)
#2985000
b10xxxxx |
b10xxxxxxx v
0k
1Q
b11 P
b11 i
b100100001 .
1)
#2990000
0)
#2995000
0Q
b0 P
b10 N
b100100010 .
1)
#3000000
0)
#3005000
b1 P
b100100011 .
1)
#3010000
0)
#3015000
b10 P
b100100100 .
1)
#3020000
0)
#3025000
1Q
b11 P
b100100101 .
1)
#3030000
0)
#3035000
0Q
b0 P
b11 N
b100100110 .
1)
#3040000
0)
#3045000
1M
b1 P
b100100111 .
1)
#3050000
0)
#3055000
1T
1S
b10 P
b0 N
b0 O
b100101000 .
1)
#3060000
0)
#3065000
1Q
0M
0T
1=
1R
1>
b11 P
b100101001 .
1)
#3070000
0)
#3075000
b11 d
0l
0>
0=
0S
0Q
b1111110001 f
b0 P
b1 N
b100 y
b10 e
b100101010 .
1)
#3080000
0)
#3085000
0m
b1 P
b100101011 .
1)
#3090000
0)
#3095000
0n
b10 P
b100101100 .
1)
#3100000
0)
#3105000
1Q
b11 P
b100101101 .
1)
#3110000
0)
#3115000
0Q
b0 P
b10 N
b100101110 .
1)
#3120000
0)
#3125000
b1 P
b100101111 .
1)
#3130000
0)
#3135000
b10 P
b100110000 .
1)
#3140000
0)
#3145000
1Q
b11 P
b100110001 .
1)
#3150000
0)
#3155000
0Q
b0 P
b11 N
b100110010 .
1)
#3160000
0)
#3165000
1M
b1 P
b100110011 .
1)
#3170000
0)
#3175000
1T
1S
b10 P
b0 N
b1 O
b100110100 .
1)
#3180000
0)
#3185000
1Q
0M
0T
1=
0R
b11 P
b100110101 .
1)
#3190000
0)
